NumCores,NumMPIProcs,NumOMPThreads,Method,CostRelaxation,AvgFringeSize,PathLength,Runtime
    1,     1,     1,    FringeSeq, 1.400000e+00,     1374, 1.683988e+03, 1.122539e+00
    1,     1,     1,    FringeSeq, 1.400000e+00,     1374, 1.683988e+03, 1.120867e+00
    1,     1,     1,    FringeSeq, 1.400000e+00,     1374, 1.683988e+03, 1.121770e+00
    1,     1,     1,    FringeSeq, 1.400000e+00,     1374, 1.683988e+03, 1.125635e+00
    1,     1,     1,    FringeSeq, 1.400000e+00,     1374, 1.683988e+03, 1.125483e+00
    1,     1,     1,    FringeSeq, 1.400000e+00,     1374, 1.683988e+03, 1.126458e+00
    1,     1,     1,    FringeSeq, 1.400000e+00,     1374, 1.683988e+03, 1.162082e+00
    1,     1,     1,    FringeSeq, 1.400000e+00,     1374, 1.683988e+03, 1.199165e+00
    1,     1,     1,    FringeSeq, 1.400000e+00,     1374, 1.683988e+03, 1.206004e+00
    1,     1,     1,    FringeSeq, 1.400000e+00,     1374, 1.683988e+03, 1.178308e+00
    1,     1,     1,    FringeSeq, 1.400000e+00,     1374, 1.683988e+03, 1.158845e+00
    1,     1,     1,    FringeSeq, 1.400000e+00,     1374, 1.683988e+03, 1.260472e+00
    1,     1,     1,    FringeSeq, 1.400000e+00,     1374, 1.683988e+03, 1.180457e+00
    1,     1,     1,    FringeSeq, 1.400000e+00,     1374, 1.683988e+03, 1.130264e+00
    1,     1,     1,    FringeSeq, 1.400000e+00,     1374, 1.683988e+03, 1.134867e+00
    1,     1,     1,    FringeSeq, 1.400000e+00,     1374, 1.683988e+03, 1.131972e+00
    1,     1,     1,    FringeSeq, 1.400000e+00,     1374, 1.683988e+03, 1.129659e+00
    1,     1,     1,    FringeSeq, 1.400000e+00,     1374, 1.683988e+03, 1.130510e+00
    1,     1,     1,    FringeSeq, 1.400000e+00,     1374, 1.683988e+03, 1.136606e+00
    1,     1,     1,    FringeSeq, 1.400000e+00,     1374, 1.683988e+03, 1.150676e+00
    1,     1,     1,    FringeOMP, 1.400000e+00,     1374, 1.683988e+03, 1.183756e+00
    1,     1,     1,    FringeOMP, 1.400000e+00,     1374, 1.683988e+03, 1.205287e+00
    1,     1,     1,    FringeOMP, 1.400000e+00,     1374, 1.683988e+03, 1.185380e+00
    1,     1,     1,    FringeOMP, 1.400000e+00,     1374, 1.683988e+03, 1.182932e+00
    1,     1,     1,    FringeOMP, 1.400000e+00,     1374, 1.683988e+03, 1.183133e+00
    1,     1,     1,    FringeOMP, 1.400000e+00,     1374, 1.683988e+03, 1.185680e+00
    1,     1,     1,    FringeOMP, 1.400000e+00,     1374, 1.683988e+03, 1.266994e+00
    1,     1,     1,    FringeOMP, 1.400000e+00,     1374, 1.683988e+03, 1.205358e+00
    1,     1,     1,    FringeOMP, 1.400000e+00,     1374, 1.683988e+03, 1.198099e+00
    1,     1,     1,    FringeOMP, 1.400000e+00,     1374, 1.683988e+03, 1.185864e+00
    1,     1,     1,    FringeOMP, 1.400000e+00,     1374, 1.683988e+03, 1.183606e+00
    1,     1,     1,    FringeOMP, 1.400000e+00,     1374, 1.683988e+03, 1.252603e+00
    1,     1,     1,    FringeOMP, 1.400000e+00,     1374, 1.683988e+03, 1.192416e+00
    1,     1,     1,    FringeOMP, 1.400000e+00,     1374, 1.683988e+03, 1.189572e+00
    1,     1,     1,    FringeOMP, 1.400000e+00,     1374, 1.683988e+03, 1.186931e+00
    1,     1,     1,    FringeOMP, 1.400000e+00,     1374, 1.683988e+03, 1.188475e+00
    1,     1,     1,    FringeOMP, 1.400000e+00,     1374, 1.683988e+03, 1.192345e+00
    1,     1,     1,    FringeOMP, 1.400000e+00,     1374, 1.683988e+03, 1.185632e+00
    1,     1,     1,    FringeOMP, 1.400000e+00,     1374, 1.683988e+03, 1.187846e+00
    1,     1,     1,    FringeOMP, 1.400000e+00,     1374, 1.683988e+03, 1.187675e+00
    2,     1,     2,    FringeOMP, 1.400000e+00,     1386, 1.684061e+03, 6.527946e-01
    2,     1,     2,    FringeOMP, 1.400000e+00,     1387, 1.684061e+03, 6.550345e-01
    2,     1,     2,    FringeOMP, 1.400000e+00,     1386, 1.684067e+03, 6.636880e-01
    2,     1,     2,    FringeOMP, 1.400000e+00,     1388, 1.684061e+03, 6.573895e-01
    2,     1,     2,    FringeOMP, 1.400000e+00,     1387, 1.683988e+03, 6.554388e-01
    2,     1,     2,    FringeOMP, 1.400000e+00,     1386, 1.684067e+03, 6.561236e-01
    2,     1,     2,    FringeOMP, 1.400000e+00,     1386, 1.683988e+03, 6.633159e-01
    2,     1,     2,    FringeOMP, 1.400000e+00,     1386, 1.684061e+03, 6.592976e-01
    2,     1,     2,    FringeOMP, 1.400000e+00,     1387, 1.684140e+03, 6.663454e-01
    2,     1,     2,    FringeOMP, 1.400000e+00,     1387, 1.683988e+03, 6.654543e-01
    2,     1,     2,    FringeOMP, 1.400000e+00,     1387, 1.684336e+03, 6.766998e-01
    2,     1,     2,    FringeOMP, 1.400000e+00,     1387, 1.684067e+03, 6.668287e-01
    2,     1,     2,    FringeOMP, 1.400000e+00,     1388, 1.684140e+03, 6.696832e-01
    2,     1,     2,    FringeOMP, 1.400000e+00,     1386, 1.683988e+03, 6.750845e-01
    2,     1,     2,    FringeOMP, 1.400000e+00,     1388, 1.683988e+03, 6.683469e-01
    2,     1,     2,    FringeOMP, 1.400000e+00,     1387, 1.684067e+03, 6.679601e-01
    2,     1,     2,    FringeOMP, 1.400000e+00,     1387, 1.683988e+03, 6.671566e-01
    2,     1,     2,    FringeOMP, 1.400000e+00,     1388, 1.683988e+03, 6.673875e-01
    2,     1,     2,    FringeOMP, 1.400000e+00,     1387, 1.683988e+03, 6.655436e-01
    2,     1,     2,    FringeOMP, 1.400000e+00,     1387, 1.684061e+03, 6.657160e-01
    4,     1,     4,    FringeOMP, 1.400000e+00,     1387, 1.683988e+03, 3.551056e-01
    4,     1,     4,    FringeOMP, 1.400000e+00,     1387, 1.684067e+03, 3.686995e-01
    4,     1,     4,    FringeOMP, 1.400000e+00,     1389, 1.683988e+03, 3.620003e-01
    4,     1,     4,    FringeOMP, 1.400000e+00,     1390, 1.684438e+03, 3.709147e-01
    4,     1,     4,    FringeOMP, 1.400000e+00,     1388, 1.683988e+03, 3.635547e-01
    4,     1,     4,    FringeOMP, 1.400000e+00,     1389, 1.684061e+03, 3.699472e-01
    4,     1,     4,    FringeOMP, 1.400000e+00,     1388, 1.684360e+03, 3.674009e-01
    4,     1,     4,    FringeOMP, 1.400000e+00,     1387, 1.683988e+03, 3.770086e-01
    4,     1,     4,    FringeOMP, 1.400000e+00,     1388, 1.684172e+03, 3.667607e-01
    4,     1,     4,    FringeOMP, 1.400000e+00,     1388, 1.683988e+03, 3.834933e-01
    4,     1,     4,    FringeOMP, 1.400000e+00,     1389, 1.683988e+03, 3.697864e-01
    4,     1,     4,    FringeOMP, 1.400000e+00,     1389, 1.684061e+03, 3.759298e-01
    4,     1,     4,    FringeOMP, 1.400000e+00,     1388, 1.684061e+03, 3.771183e-01
    4,     1,     4,    FringeOMP, 1.400000e+00,     1388, 1.684067e+03, 3.805873e-01
    4,     1,     4,    FringeOMP, 1.400000e+00,     1387, 1.683988e+03, 3.882707e-01
    4,     1,     4,    FringeOMP, 1.400000e+00,     1388, 1.683988e+03, 3.837092e-01
    4,     1,     4,    FringeOMP, 1.400000e+00,     1388, 1.684186e+03, 3.800762e-01
    4,     1,     4,    FringeOMP, 1.400000e+00,     1389, 1.684140e+03, 3.739525e-01
    4,     1,     4,    FringeOMP, 1.400000e+00,     1389, 1.684140e+03, 3.785951e-01
    4,     1,     4,    FringeOMP, 1.400000e+00,     1388, 1.683988e+03, 3.816921e-01
    8,     1,     8,    FringeOMP, 1.400000e+00,     1389, 1.684061e+03, 2.296961e-01
    8,     1,     8,    FringeOMP, 1.400000e+00,     1389, 1.683988e+03, 2.438345e-01
    8,     1,     8,    FringeOMP, 1.400000e+00,     1388, 1.683988e+03, 2.287123e-01
    8,     1,     8,    FringeOMP, 1.400000e+00,     1389, 1.684186e+03, 2.590143e-01
    8,     1,     8,    FringeOMP, 1.400000e+00,     1390, 1.683988e+03, 2.400845e-01
    8,     1,     8,    FringeOMP, 1.400000e+00,     1389, 1.684120e+03, 2.401266e-01
    8,     1,     8,    FringeOMP, 1.400000e+00,     1389, 1.684067e+03, 2.571003e-01
    8,     1,     8,    FringeOMP, 1.400000e+00,     1389, 1.683988e+03, 2.456368e-01
    8,     1,     8,    FringeOMP, 1.400000e+00,     1389, 1.683988e+03, 2.411813e-01
    8,     1,     8,    FringeOMP, 1.400000e+00,     1388, 1.684067e+03, 2.547395e-01
    8,     1,     8,    FringeOMP, 1.400000e+00,     1389, 1.684140e+03, 2.458263e-01
    8,     1,     8,    FringeOMP, 1.400000e+00,     1389, 1.684115e+03, 2.465245e-01
    8,     1,     8,    FringeOMP, 1.400000e+00,     1389, 1.684061e+03, 2.407892e-01
    8,     1,     8,    FringeOMP, 1.400000e+00,     1389, 1.683988e+03, 2.382024e-01
    8,     1,     8,    FringeOMP, 1.400000e+00,     1388, 1.684061e+03, 2.489455e-01
    8,     1,     8,    FringeOMP, 1.400000e+00,     1390, 1.683988e+03, 2.409521e-01
    8,     1,     8,    FringeOMP, 1.400000e+00,     1389, 1.683988e+03, 2.528639e-01
    8,     1,     8,    FringeOMP, 1.400000e+00,     1389, 1.683988e+03, 2.355748e-01
    8,     1,     8,    FringeOMP, 1.400000e+00,     1389, 1.684313e+03, 2.447698e-01
    8,     1,     8,    FringeOMP, 1.400000e+00,     1389, 1.684409e+03, 2.549317e-01
