NumCores,NumMPIProcs,NumOMPThreads,Method,CostRelaxation,AvgFringeSize,PathLength,Runtime
    1,     1,     1,    FringeSeq, 2.000000e-01,     1463, 1.684110e+03, 1.230943e+00
    1,     1,     1,    FringeSeq, 2.000000e-01,     1463, 1.684110e+03, 1.230570e+00
    1,     1,     1,    FringeSeq, 2.000000e-01,     1463, 1.684110e+03, 1.238820e+00
    1,     1,     1,    FringeSeq, 2.000000e-01,     1463, 1.684110e+03, 1.248740e+00
    1,     1,     1,    FringeSeq, 2.000000e-01,     1463, 1.684110e+03, 1.249050e+00
    1,     1,     1,    FringeSeq, 2.000000e-01,     1463, 1.684110e+03, 1.255317e+00
    1,     1,     1,    FringeSeq, 2.000000e-01,     1463, 1.684110e+03, 1.257662e+00
    1,     1,     1,    FringeSeq, 2.000000e-01,     1463, 1.684110e+03, 1.258075e+00
    1,     1,     1,    FringeSeq, 2.000000e-01,     1463, 1.684110e+03, 1.257524e+00
    1,     1,     1,    FringeSeq, 2.000000e-01,     1463, 1.684110e+03, 1.266083e+00
    1,     1,     1,    FringeSeq, 2.000000e-01,     1463, 1.684110e+03, 1.271682e+00
    1,     1,     1,    FringeSeq, 2.000000e-01,     1463, 1.684110e+03, 1.272809e+00
    1,     1,     1,    FringeSeq, 2.000000e-01,     1463, 1.684110e+03, 1.272624e+00
    1,     1,     1,    FringeSeq, 2.000000e-01,     1463, 1.684110e+03, 1.273561e+00
    1,     1,     1,    FringeSeq, 2.000000e-01,     1463, 1.684110e+03, 1.275918e+00
    1,     1,     1,    FringeSeq, 2.000000e-01,     1463, 1.684110e+03, 1.282898e+00
    1,     1,     1,    FringeSeq, 2.000000e-01,     1463, 1.684110e+03, 1.283293e+00
    1,     1,     1,    FringeSeq, 2.000000e-01,     1463, 1.684110e+03, 1.286130e+00
    1,     1,     1,    FringeSeq, 2.000000e-01,     1463, 1.684110e+03, 1.284951e+00
    1,     1,     1,    FringeSeq, 2.000000e-01,     1463, 1.684110e+03, 1.287237e+00
    1,     1,     1,    FringeOMP, 2.000000e-01,     1463, 1.684110e+03, 1.299558e+00
    1,     1,     1,    FringeOMP, 2.000000e-01,     1463, 1.684110e+03, 1.300590e+00
    1,     1,     1,    FringeOMP, 2.000000e-01,     1463, 1.684110e+03, 1.306524e+00
    1,     1,     1,    FringeOMP, 2.000000e-01,     1463, 1.684110e+03, 1.307780e+00
    1,     1,     1,    FringeOMP, 2.000000e-01,     1463, 1.684110e+03, 1.309918e+00
    1,     1,     1,    FringeOMP, 2.000000e-01,     1463, 1.684110e+03, 1.308637e+00
    1,     1,     1,    FringeOMP, 2.000000e-01,     1463, 1.684110e+03, 1.313812e+00
    1,     1,     1,    FringeOMP, 2.000000e-01,     1463, 1.684110e+03, 1.313179e+00
    1,     1,     1,    FringeOMP, 2.000000e-01,     1463, 1.684110e+03, 1.309832e+00
    1,     1,     1,    FringeOMP, 2.000000e-01,     1463, 1.684110e+03, 1.306429e+00
    1,     1,     1,    FringeOMP, 2.000000e-01,     1463, 1.684110e+03, 1.306683e+00
    1,     1,     1,    FringeOMP, 2.000000e-01,     1463, 1.684110e+03, 1.304333e+00
    1,     1,     1,    FringeOMP, 2.000000e-01,     1463, 1.684110e+03, 1.303535e+00
    1,     1,     1,    FringeOMP, 2.000000e-01,     1463, 1.684110e+03, 1.308645e+00
    1,     1,     1,    FringeOMP, 2.000000e-01,     1463, 1.684110e+03, 1.312734e+00
    1,     1,     1,    FringeOMP, 2.000000e-01,     1463, 1.684110e+03, 1.311419e+00
    1,     1,     1,    FringeOMP, 2.000000e-01,     1463, 1.684110e+03, 1.314367e+00
    1,     1,     1,    FringeOMP, 2.000000e-01,     1463, 1.684110e+03, 1.318207e+00
    1,     1,     1,    FringeOMP, 2.000000e-01,     1463, 1.684110e+03, 1.318636e+00
    1,     1,     1,    FringeOMP, 2.000000e-01,     1463, 1.684110e+03, 1.318160e+00
    2,     1,     2,    FringeOMP, 2.000000e-01,     1461, 1.683988e+03, 7.268288e-01
    2,     1,     2,    FringeOMP, 2.000000e-01,     1465, 1.684089e+03, 7.333800e-01
    2,     1,     2,    FringeOMP, 2.000000e-01,     1467, 1.684206e+03, 7.345492e-01
    2,     1,     2,    FringeOMP, 2.000000e-01,     1467, 1.684132e+03, 7.359280e-01
    2,     1,     2,    FringeOMP, 2.000000e-01,     1466, 1.684103e+03, 7.344215e-01
    2,     1,     2,    FringeOMP, 2.000000e-01,     1468, 1.684094e+03, 7.359264e-01
    2,     1,     2,    FringeOMP, 2.000000e-01,     1464, 1.684057e+03, 7.349256e-01
    2,     1,     2,    FringeOMP, 2.000000e-01,     1469, 1.684177e+03, 7.355328e-01
    2,     1,     2,    FringeOMP, 2.000000e-01,     1469, 1.684094e+03, 7.336762e-01
    2,     1,     2,    FringeOMP, 2.000000e-01,     1466, 1.684158e+03, 7.335235e-01
    2,     1,     2,    FringeOMP, 2.000000e-01,     1466, 1.684153e+03, 7.340641e-01
    2,     1,     2,    FringeOMP, 2.000000e-01,     1466, 1.684091e+03, 7.347996e-01
    2,     1,     2,    FringeOMP, 2.000000e-01,     1464, 1.684022e+03, 7.410183e-01
    2,     1,     2,    FringeOMP, 2.000000e-01,     1465, 1.684141e+03, 7.334219e-01
    2,     1,     2,    FringeOMP, 2.000000e-01,     1464, 1.684103e+03, 7.357657e-01
    2,     1,     2,    FringeOMP, 2.000000e-01,     1470, 1.684101e+03, 7.376805e-01
    2,     1,     2,    FringeOMP, 2.000000e-01,     1466, 1.684080e+03, 7.389802e-01
    2,     1,     2,    FringeOMP, 2.000000e-01,     1463, 1.684061e+03, 7.417968e-01
    2,     1,     2,    FringeOMP, 2.000000e-01,     1469, 1.684091e+03, 7.462713e-01
    2,     1,     2,    FringeOMP, 2.000000e-01,     1467, 1.684168e+03, 7.445963e-01
    4,     1,     4,    FringeOMP, 2.000000e-01,     1466, 1.684175e+03, 4.219004e-01
    4,     1,     4,    FringeOMP, 2.000000e-01,     1468, 1.684246e+03, 4.224224e-01
    4,     1,     4,    FringeOMP, 2.000000e-01,     1464, 1.684103e+03, 4.214015e-01
    4,     1,     4,    FringeOMP, 2.000000e-01,     1464, 1.684014e+03, 4.193643e-01
    4,     1,     4,    FringeOMP, 2.000000e-01,     1467, 1.684089e+03, 4.218533e-01
    4,     1,     4,    FringeOMP, 2.000000e-01,     1468, 1.684094e+03, 4.225867e-01
    4,     1,     4,    FringeOMP, 2.000000e-01,     1467, 1.684189e+03, 4.271491e-01
    4,     1,     4,    FringeOMP, 2.000000e-01,     1468, 1.684142e+03, 4.265918e-01
    4,     1,     4,    FringeOMP, 2.000000e-01,     1464, 1.684082e+03, 4.197179e-01
    4,     1,     4,    FringeOMP, 2.000000e-01,     1467, 1.684226e+03, 4.231669e-01
    4,     1,     4,    FringeOMP, 2.000000e-01,     1464, 1.684160e+03, 4.198002e-01
    4,     1,     4,    FringeOMP, 2.000000e-01,     1465, 1.684101e+03, 4.358446e-01
    4,     1,     4,    FringeOMP, 2.000000e-01,     1467, 1.684134e+03, 4.283409e-01
    4,     1,     4,    FringeOMP, 2.000000e-01,     1467, 1.684060e+03, 4.307211e-01
    4,     1,     4,    FringeOMP, 2.000000e-01,     1465, 1.684103e+03, 4.228425e-01
    4,     1,     4,    FringeOMP, 2.000000e-01,     1466, 1.684171e+03, 4.318430e-01
    4,     1,     4,    FringeOMP, 2.000000e-01,     1466, 1.684176e+03, 4.285286e-01
    4,     1,     4,    FringeOMP, 2.000000e-01,     1464, 1.684177e+03, 4.463816e-01
    4,     1,     4,    FringeOMP, 2.000000e-01,     1466, 1.684086e+03, 4.289749e-01
    4,     1,     4,    FringeOMP, 2.000000e-01,     1465, 1.684127e+03, 4.338798e-01
    8,     1,     8,    FringeOMP, 2.000000e-01,     1467, 1.684121e+03, 2.662257e-01
    8,     1,     8,    FringeOMP, 2.000000e-01,     1471, 1.684293e+03, 2.736049e-01
    8,     1,     8,    FringeOMP, 2.000000e-01,     1465, 1.684110e+03, 2.791680e-01
    8,     1,     8,    FringeOMP, 2.000000e-01,     1470, 1.684017e+03, 2.751482e-01
    8,     1,     8,    FringeOMP, 2.000000e-01,     1469, 1.684110e+03, 2.881279e-01
    8,     1,     8,    FringeOMP, 2.000000e-01,     1466, 1.684215e+03, 2.997380e-01
    8,     1,     8,    FringeOMP, 2.000000e-01,     1469, 1.684051e+03, 2.784507e-01
    8,     1,     8,    FringeOMP, 2.000000e-01,     1467, 1.684122e+03, 2.854177e-01
    8,     1,     8,    FringeOMP, 2.000000e-01,     1468, 1.684144e+03, 2.852286e-01
    8,     1,     8,    FringeOMP, 2.000000e-01,     1469, 1.684268e+03, 2.963269e-01
    8,     1,     8,    FringeOMP, 2.000000e-01,     1466, 1.684110e+03, 2.890992e-01
    8,     1,     8,    FringeOMP, 2.000000e-01,     1467, 1.684058e+03, 2.828496e-01
    8,     1,     8,    FringeOMP, 2.000000e-01,     1465, 1.683988e+03, 2.954597e-01
    8,     1,     8,    FringeOMP, 2.000000e-01,     1468, 1.684212e+03, 2.873558e-01
    8,     1,     8,    FringeOMP, 2.000000e-01,     1465, 1.684141e+03, 2.882999e-01
    8,     1,     8,    FringeOMP, 2.000000e-01,     1468, 1.684127e+03, 3.035583e-01
    8,     1,     8,    FringeOMP, 2.000000e-01,     1466, 1.684094e+03, 2.854928e-01
    8,     1,     8,    FringeOMP, 2.000000e-01,     1467, 1.684115e+03, 2.871443e-01
    8,     1,     8,    FringeOMP, 2.000000e-01,     1467, 1.684072e+03, 2.932850e-01
    8,     1,     8,    FringeOMP, 2.000000e-01,     1468, 1.684110e+03, 2.943780e-01
