NumCores,NumMPIProcs,NumOMPThreads,Method,CostRelaxation,AvgFringeSize,PathLength,Runtime
    1,     1,     1,    FringeSeq, 0.000000e+00,     1675, 1.683988e+03, 4.516141e+01
    1,     1,     1,    FringeOMP, 0.000000e+00,     1675, 1.683988e+03, 3.618251e+01
    2,     1,     2,    FringeOMP, 0.000000e+00,     1675, 1.683988e+03, 2.038525e+01
    4,     1,     4,    FringeOMP, 0.000000e+00,     1675, 1.683988e+03, 1.227766e+01
    8,     1,     8,    FringeOMP, 0.000000e+00,     1675, 1.683988e+03, 1.001639e+01
