NumCores,NumMPIProcs,NumOMPThreads,Method,CostRelaxation,AvgFringeSize,PathLength,Runtime
    1,     1,     1,    FringeSeq, 1.800000e+00,     1375, 1.683988e+03, 1.188732e+00
    1,     1,     1,    FringeSeq, 1.800000e+00,     1375, 1.683988e+03, 1.199222e+00
    1,     1,     1,    FringeSeq, 1.800000e+00,     1375, 1.683988e+03, 1.194002e+00
    1,     1,     1,    FringeSeq, 1.800000e+00,     1375, 1.683988e+03, 1.201586e+00
    1,     1,     1,    FringeSeq, 1.800000e+00,     1375, 1.683988e+03, 1.192493e+00
    1,     1,     1,    FringeSeq, 1.800000e+00,     1375, 1.683988e+03, 1.191935e+00
    1,     1,     1,    FringeSeq, 1.800000e+00,     1375, 1.683988e+03, 1.196847e+00
    1,     1,     1,    FringeSeq, 1.800000e+00,     1375, 1.683988e+03, 1.195153e+00
    1,     1,     1,    FringeSeq, 1.800000e+00,     1375, 1.683988e+03, 1.195487e+00
    1,     1,     1,    FringeSeq, 1.800000e+00,     1375, 1.683988e+03, 1.194806e+00
    1,     1,     1,    FringeSeq, 1.800000e+00,     1375, 1.683988e+03, 1.194720e+00
    1,     1,     1,    FringeSeq, 1.800000e+00,     1375, 1.683988e+03, 1.193717e+00
    1,     1,     1,    FringeSeq, 1.800000e+00,     1375, 1.683988e+03, 1.185433e+00
    1,     1,     1,    FringeSeq, 1.800000e+00,     1375, 1.683988e+03, 1.194293e+00
    1,     1,     1,    FringeSeq, 1.800000e+00,     1375, 1.683988e+03, 1.197714e+00
    1,     1,     1,    FringeSeq, 1.800000e+00,     1375, 1.683988e+03, 1.202065e+00
    1,     1,     1,    FringeSeq, 1.800000e+00,     1375, 1.683988e+03, 1.199853e+00
    1,     1,     1,    FringeSeq, 1.800000e+00,     1375, 1.683988e+03, 1.208111e+00
    1,     1,     1,    FringeSeq, 1.800000e+00,     1375, 1.683988e+03, 1.334788e+00
    1,     1,     1,    FringeSeq, 1.800000e+00,     1375, 1.683988e+03, 1.359667e+00
    1,     1,     1,    FringeOMP, 1.800000e+00,     1375, 1.683988e+03, 1.377049e+00
    1,     1,     1,    FringeOMP, 1.800000e+00,     1375, 1.683988e+03, 1.376841e+00
    1,     1,     1,    FringeOMP, 1.800000e+00,     1375, 1.683988e+03, 1.392758e+00
    1,     1,     1,    FringeOMP, 1.800000e+00,     1375, 1.683988e+03, 1.407196e+00
    1,     1,     1,    FringeOMP, 1.800000e+00,     1375, 1.683988e+03, 1.388382e+00
    1,     1,     1,    FringeOMP, 1.800000e+00,     1375, 1.683988e+03, 1.384109e+00
    1,     1,     1,    FringeOMP, 1.800000e+00,     1375, 1.683988e+03, 1.391272e+00
    1,     1,     1,    FringeOMP, 1.800000e+00,     1375, 1.683988e+03, 1.301753e+00
    1,     1,     1,    FringeOMP, 1.800000e+00,     1375, 1.683988e+03, 1.349326e+00
    1,     1,     1,    FringeOMP, 1.800000e+00,     1375, 1.683988e+03, 1.365400e+00
    1,     1,     1,    FringeOMP, 1.800000e+00,     1375, 1.683988e+03, 1.350636e+00
    1,     1,     1,    FringeOMP, 1.800000e+00,     1375, 1.683988e+03, 1.314602e+00
    1,     1,     1,    FringeOMP, 1.800000e+00,     1375, 1.683988e+03, 1.305414e+00
    1,     1,     1,    FringeOMP, 1.800000e+00,     1375, 1.683988e+03, 1.305120e+00
    1,     1,     1,    FringeOMP, 1.800000e+00,     1375, 1.683988e+03, 1.280025e+00
    1,     1,     1,    FringeOMP, 1.800000e+00,     1375, 1.683988e+03, 1.279739e+00
    1,     1,     1,    FringeOMP, 1.800000e+00,     1375, 1.683988e+03, 1.279344e+00
    1,     1,     1,    FringeOMP, 1.800000e+00,     1375, 1.683988e+03, 1.265970e+00
    1,     1,     1,    FringeOMP, 1.800000e+00,     1375, 1.683988e+03, 1.267787e+00
    1,     1,     1,    FringeOMP, 1.800000e+00,     1375, 1.683988e+03, 1.263317e+00
    2,     1,     2,    FringeOMP, 1.800000e+00,     1386, 1.683988e+03, 6.874223e-01
    2,     1,     2,    FringeOMP, 1.800000e+00,     1387, 1.683988e+03, 6.891673e-01
    2,     1,     2,    FringeOMP, 1.800000e+00,     1386, 1.683988e+03, 6.927377e-01
    2,     1,     2,    FringeOMP, 1.800000e+00,     1386, 1.683988e+03, 6.952949e-01
    2,     1,     2,    FringeOMP, 1.800000e+00,     1386, 1.683988e+03, 6.951795e-01
    2,     1,     2,    FringeOMP, 1.800000e+00,     1386, 1.683988e+03, 6.922278e-01
    2,     1,     2,    FringeOMP, 1.800000e+00,     1387, 1.683988e+03, 6.928085e-01
    2,     1,     2,    FringeOMP, 1.800000e+00,     1386, 1.683988e+03, 6.959576e-01
    2,     1,     2,    FringeOMP, 1.800000e+00,     1386, 1.683988e+03, 6.950074e-01
    2,     1,     2,    FringeOMP, 1.800000e+00,     1386, 1.683988e+03, 6.994525e-01
    2,     1,     2,    FringeOMP, 1.800000e+00,     1386, 1.684067e+03, 6.929688e-01
    2,     1,     2,    FringeOMP, 1.800000e+00,     1386, 1.683988e+03, 6.976813e-01
    2,     1,     2,    FringeOMP, 1.800000e+00,     1387, 1.683988e+03, 6.963251e-01
    2,     1,     2,    FringeOMP, 1.800000e+00,     1386, 1.683988e+03, 6.967045e-01
    2,     1,     2,    FringeOMP, 1.800000e+00,     1386, 1.683988e+03, 6.938258e-01
    2,     1,     2,    FringeOMP, 1.800000e+00,     1386, 1.683988e+03, 6.944206e-01
    2,     1,     2,    FringeOMP, 1.800000e+00,     1385, 1.683988e+03, 6.947566e-01
    2,     1,     2,    FringeOMP, 1.800000e+00,     1386, 1.683988e+03, 6.938293e-01
    2,     1,     2,    FringeOMP, 1.800000e+00,     1385, 1.683988e+03, 6.928099e-01
    2,     1,     2,    FringeOMP, 1.800000e+00,     1387, 1.683988e+03, 6.912454e-01
    4,     1,     4,    FringeOMP, 1.800000e+00,     1387, 1.683988e+03, 3.747546e-01
    4,     1,     4,    FringeOMP, 1.800000e+00,     1388, 1.683988e+03, 3.784731e-01
    4,     1,     4,    FringeOMP, 1.800000e+00,     1387, 1.683988e+03, 3.827864e-01
    4,     1,     4,    FringeOMP, 1.800000e+00,     1387, 1.683988e+03, 3.769208e-01
    4,     1,     4,    FringeOMP, 1.800000e+00,     1388, 1.683988e+03, 3.911801e-01
    4,     1,     4,    FringeOMP, 1.800000e+00,     1387, 1.683988e+03, 3.766919e-01
    4,     1,     4,    FringeOMP, 1.800000e+00,     1387, 1.683988e+03, 3.826408e-01
    4,     1,     4,    FringeOMP, 1.800000e+00,     1387, 1.683988e+03, 3.782842e-01
    4,     1,     4,    FringeOMP, 1.800000e+00,     1387, 1.683988e+03, 3.915995e-01
    4,     1,     4,    FringeOMP, 1.800000e+00,     1387, 1.683988e+03, 3.905625e-01
    4,     1,     4,    FringeOMP, 1.800000e+00,     1387, 1.683988e+03, 3.807254e-01
    4,     1,     4,    FringeOMP, 1.800000e+00,     1388, 1.683988e+03, 3.791647e-01
    4,     1,     4,    FringeOMP, 1.800000e+00,     1387, 1.683988e+03, 3.836707e-01
    4,     1,     4,    FringeOMP, 1.800000e+00,     1386, 1.683988e+03, 3.845680e-01
    4,     1,     4,    FringeOMP, 1.800000e+00,     1387, 1.683988e+03, 3.812284e-01
    4,     1,     4,    FringeOMP, 1.800000e+00,     1388, 1.683988e+03, 3.881096e-01
    4,     1,     4,    FringeOMP, 1.800000e+00,     1387, 1.683988e+03, 3.816037e-01
    4,     1,     4,    FringeOMP, 1.800000e+00,     1387, 1.683988e+03, 3.875899e-01
    4,     1,     4,    FringeOMP, 1.800000e+00,     1388, 1.683988e+03, 3.867741e-01
    4,     1,     4,    FringeOMP, 1.800000e+00,     1388, 1.683988e+03, 3.790669e-01
    8,     1,     8,    FringeOMP, 1.800000e+00,     1389, 1.683988e+03, 2.246505e-01
    8,     1,     8,    FringeOMP, 1.800000e+00,     1388, 1.683988e+03, 2.406347e-01
    8,     1,     8,    FringeOMP, 1.800000e+00,     1387, 1.683988e+03, 2.424679e-01
    8,     1,     8,    FringeOMP, 1.800000e+00,     1388, 1.683988e+03, 2.496114e-01
    8,     1,     8,    FringeOMP, 1.800000e+00,     1387, 1.683988e+03, 2.747725e-01
    8,     1,     8,    FringeOMP, 1.800000e+00,     1387, 1.684067e+03, 2.390860e-01
    8,     1,     8,    FringeOMP, 1.800000e+00,     1387, 1.683988e+03, 2.530348e-01
    8,     1,     8,    FringeOMP, 1.800000e+00,     1388, 1.683988e+03, 2.855654e-01
    8,     1,     8,    FringeOMP, 1.800000e+00,     1388, 1.683988e+03, 2.552840e-01
    8,     1,     8,    FringeOMP, 1.800000e+00,     1388, 1.683988e+03, 2.531334e-01
    8,     1,     8,    FringeOMP, 1.800000e+00,     1388, 1.683988e+03, 2.469480e-01
    8,     1,     8,    FringeOMP, 1.800000e+00,     1388, 1.683988e+03, 2.575313e-01
    8,     1,     8,    FringeOMP, 1.800000e+00,     1388, 1.684067e+03, 2.420937e-01
    8,     1,     8,    FringeOMP, 1.800000e+00,     1387, 1.683988e+03, 2.519997e-01
    8,     1,     8,    FringeOMP, 1.800000e+00,     1388, 1.683988e+03, 2.531370e-01
    8,     1,     8,    FringeOMP, 1.800000e+00,     1387, 1.683988e+03, 2.688353e-01
    8,     1,     8,    FringeOMP, 1.800000e+00,     1388, 1.683988e+03, 2.664026e-01
    8,     1,     8,    FringeOMP, 1.800000e+00,     1387, 1.683988e+03, 3.122714e-01
    8,     1,     8,    FringeOMP, 1.800000e+00,     1388, 1.683988e+03, 2.530899e-01
    8,     1,     8,    FringeOMP, 1.800000e+00,     1388, 1.683988e+03, 2.646389e-01
