NumCores,NumMPIProcs,NumOMPThreads,Method,CostRelaxation,AvgFringeSize,PathLength,Runtime
    1,     1,     1,    FringeSeq, 4.000000e-01,     1440, 1.684328e+03, 1.141242e+00
    1,     1,     1,    FringeSeq, 4.000000e-01,     1440, 1.684328e+03, 1.137643e+00
    1,     1,     1,    FringeSeq, 4.000000e-01,     1440, 1.684328e+03, 1.145819e+00
    1,     1,     1,    FringeSeq, 4.000000e-01,     1440, 1.684328e+03, 1.150674e+00
    1,     1,     1,    FringeSeq, 4.000000e-01,     1440, 1.684328e+03, 1.152334e+00
    1,     1,     1,    FringeSeq, 4.000000e-01,     1440, 1.684328e+03, 1.203647e+00
    1,     1,     1,    FringeSeq, 4.000000e-01,     1440, 1.684328e+03, 1.250742e+00
    1,     1,     1,    FringeSeq, 4.000000e-01,     1440, 1.684328e+03, 1.187701e+00
    1,     1,     1,    FringeSeq, 4.000000e-01,     1440, 1.684328e+03, 1.197553e+00
    1,     1,     1,    FringeSeq, 4.000000e-01,     1440, 1.684328e+03, 1.177336e+00
    1,     1,     1,    FringeSeq, 4.000000e-01,     1440, 1.684328e+03, 1.192586e+00
    1,     1,     1,    FringeSeq, 4.000000e-01,     1440, 1.684328e+03, 1.198292e+00
    1,     1,     1,    FringeSeq, 4.000000e-01,     1440, 1.684328e+03, 1.203767e+00
    1,     1,     1,    FringeSeq, 4.000000e-01,     1440, 1.684328e+03, 1.185830e+00
    1,     1,     1,    FringeSeq, 4.000000e-01,     1440, 1.684328e+03, 1.199360e+00
    1,     1,     1,    FringeSeq, 4.000000e-01,     1440, 1.684328e+03, 1.192027e+00
    1,     1,     1,    FringeSeq, 4.000000e-01,     1440, 1.684328e+03, 1.192267e+00
    1,     1,     1,    FringeSeq, 4.000000e-01,     1440, 1.684328e+03, 1.209398e+00
    1,     1,     1,    FringeSeq, 4.000000e-01,     1440, 1.684328e+03, 1.217645e+00
    1,     1,     1,    FringeSeq, 4.000000e-01,     1440, 1.684328e+03, 1.217260e+00
    1,     1,     1,    FringeOMP, 4.000000e-01,     1440, 1.684328e+03, 1.248072e+00
    1,     1,     1,    FringeOMP, 4.000000e-01,     1440, 1.684328e+03, 1.232941e+00
    1,     1,     1,    FringeOMP, 4.000000e-01,     1440, 1.684328e+03, 1.245601e+00
    1,     1,     1,    FringeOMP, 4.000000e-01,     1440, 1.684328e+03, 1.240434e+00
    1,     1,     1,    FringeOMP, 4.000000e-01,     1440, 1.684328e+03, 1.259060e+00
    1,     1,     1,    FringeOMP, 4.000000e-01,     1440, 1.684328e+03, 1.244876e+00
    1,     1,     1,    FringeOMP, 4.000000e-01,     1440, 1.684328e+03, 1.259311e+00
    1,     1,     1,    FringeOMP, 4.000000e-01,     1440, 1.684328e+03, 1.255144e+00
    1,     1,     1,    FringeOMP, 4.000000e-01,     1440, 1.684328e+03, 1.248792e+00
    1,     1,     1,    FringeOMP, 4.000000e-01,     1440, 1.684328e+03, 1.254683e+00
    1,     1,     1,    FringeOMP, 4.000000e-01,     1440, 1.684328e+03, 1.259678e+00
    1,     1,     1,    FringeOMP, 4.000000e-01,     1440, 1.684328e+03, 1.258625e+00
    1,     1,     1,    FringeOMP, 4.000000e-01,     1440, 1.684328e+03, 1.289158e+00
    1,     1,     1,    FringeOMP, 4.000000e-01,     1440, 1.684328e+03, 1.343974e+00
    1,     1,     1,    FringeOMP, 4.000000e-01,     1440, 1.684328e+03, 1.372054e+00
    1,     1,     1,    FringeOMP, 4.000000e-01,     1440, 1.684328e+03, 1.275704e+00
    1,     1,     1,    FringeOMP, 4.000000e-01,     1440, 1.684328e+03, 1.255704e+00
    1,     1,     1,    FringeOMP, 4.000000e-01,     1440, 1.684328e+03, 1.256832e+00
    1,     1,     1,    FringeOMP, 4.000000e-01,     1440, 1.684328e+03, 1.432537e+00
    1,     1,     1,    FringeOMP, 4.000000e-01,     1440, 1.684328e+03, 1.304452e+00
    2,     1,     2,    FringeOMP, 4.000000e-01,     1448, 1.684340e+03, 6.899604e-01
    2,     1,     2,    FringeOMP, 4.000000e-01,     1449, 1.684527e+03, 6.968872e-01
    2,     1,     2,    FringeOMP, 4.000000e-01,     1451, 1.684448e+03, 7.015890e-01
    2,     1,     2,    FringeOMP, 4.000000e-01,     1448, 1.684695e+03, 7.082555e-01
    2,     1,     2,    FringeOMP, 4.000000e-01,     1447, 1.684402e+03, 7.051568e-01
    2,     1,     2,    FringeOMP, 4.000000e-01,     1447, 1.684444e+03, 7.001245e-01
    2,     1,     2,    FringeOMP, 4.000000e-01,     1448, 1.684472e+03, 7.082385e-01
    2,     1,     2,    FringeOMP, 4.000000e-01,     1444, 1.684542e+03, 8.461866e-01
    2,     1,     2,    FringeOMP, 4.000000e-01,     1451, 1.684570e+03, 7.002258e-01
    2,     1,     2,    FringeOMP, 4.000000e-01,     1447, 1.684398e+03, 6.961125e-01
    2,     1,     2,    FringeOMP, 4.000000e-01,     1448, 1.684158e+03, 6.938192e-01
    2,     1,     2,    FringeOMP, 4.000000e-01,     1449, 1.684461e+03, 6.966205e-01
    2,     1,     2,    FringeOMP, 4.000000e-01,     1449, 1.684187e+03, 6.950794e-01
    2,     1,     2,    FringeOMP, 4.000000e-01,     1448, 1.684396e+03, 7.005446e-01
    2,     1,     2,    FringeOMP, 4.000000e-01,     1446, 1.684557e+03, 7.020603e-01
    2,     1,     2,    FringeOMP, 4.000000e-01,     1450, 1.684675e+03, 7.003410e-01
    2,     1,     2,    FringeOMP, 4.000000e-01,     1448, 1.684404e+03, 6.981852e-01
    2,     1,     2,    FringeOMP, 4.000000e-01,     1450, 1.684502e+03, 6.961679e-01
    2,     1,     2,    FringeOMP, 4.000000e-01,     1446, 1.684215e+03, 6.944892e-01
    2,     1,     2,    FringeOMP, 4.000000e-01,     1446, 1.684401e+03, 6.959362e-01
    4,     1,     4,    FringeOMP, 4.000000e-01,     1452, 1.684663e+03, 3.941905e-01
    4,     1,     4,    FringeOMP, 4.000000e-01,     1451, 1.684604e+03, 3.978597e-01
    4,     1,     4,    FringeOMP, 4.000000e-01,     1447, 1.684246e+03, 3.969914e-01
    4,     1,     4,    FringeOMP, 4.000000e-01,     1450, 1.684374e+03, 3.829794e-01
    4,     1,     4,    FringeOMP, 4.000000e-01,     1449, 1.684335e+03, 3.942332e-01
    4,     1,     4,    FringeOMP, 4.000000e-01,     1451, 1.684429e+03, 4.002058e-01
    4,     1,     4,    FringeOMP, 4.000000e-01,     1448, 1.684264e+03, 3.946710e-01
    4,     1,     4,    FringeOMP, 4.000000e-01,     1449, 1.684525e+03, 4.717983e-01
    4,     1,     4,    FringeOMP, 4.000000e-01,     1451, 1.684362e+03, 5.250789e-01
    4,     1,     4,    FringeOMP, 4.000000e-01,     1448, 1.684251e+03, 4.002202e-01
    4,     1,     4,    FringeOMP, 4.000000e-01,     1450, 1.684649e+03, 4.050853e-01
    4,     1,     4,    FringeOMP, 4.000000e-01,     1452, 1.684589e+03, 4.162957e-01
    4,     1,     4,    FringeOMP, 4.000000e-01,     1448, 1.684438e+03, 4.419659e-01
    4,     1,     4,    FringeOMP, 4.000000e-01,     1450, 1.684387e+03, 4.341865e-01
    4,     1,     4,    FringeOMP, 4.000000e-01,     1446, 1.684399e+03, 4.129222e-01
    4,     1,     4,    FringeOMP, 4.000000e-01,     1448, 1.684440e+03, 3.990056e-01
    4,     1,     4,    FringeOMP, 4.000000e-01,     1449, 1.684169e+03, 4.084191e-01
    4,     1,     4,    FringeOMP, 4.000000e-01,     1444, 1.684283e+03, 3.931400e-01
    4,     1,     4,    FringeOMP, 4.000000e-01,     1446, 1.684539e+03, 4.137644e-01
    4,     1,     4,    FringeOMP, 4.000000e-01,     1452, 1.684701e+03, 4.091706e-01
    8,     1,     8,    FringeOMP, 4.000000e-01,     1454, 1.684380e+03, 2.433486e-01
    8,     1,     8,    FringeOMP, 4.000000e-01,     1451, 1.684350e+03, 2.554107e-01
    8,     1,     8,    FringeOMP, 4.000000e-01,     1449, 1.684228e+03, 2.577462e-01
    8,     1,     8,    FringeOMP, 4.000000e-01,     1449, 1.684531e+03, 2.581826e-01
    8,     1,     8,    FringeOMP, 4.000000e-01,     1449, 1.684574e+03, 2.516317e-01
    8,     1,     8,    FringeOMP, 4.000000e-01,     1451, 1.684754e+03, 2.572110e-01
    8,     1,     8,    FringeOMP, 4.000000e-01,     1452, 1.684312e+03, 2.863884e-01
    8,     1,     8,    FringeOMP, 4.000000e-01,     1450, 1.684200e+03, 2.537653e-01
    8,     1,     8,    FringeOMP, 4.000000e-01,     1447, 1.684452e+03, 2.748408e-01
    8,     1,     8,    FringeOMP, 4.000000e-01,     1450, 1.684367e+03, 2.549902e-01
    8,     1,     8,    FringeOMP, 4.000000e-01,     1452, 1.684277e+03, 2.613173e-01
    8,     1,     8,    FringeOMP, 4.000000e-01,     1450, 1.684296e+03, 2.518744e-01
    8,     1,     8,    FringeOMP, 4.000000e-01,     1450, 1.684434e+03, 2.521749e-01
    8,     1,     8,    FringeOMP, 4.000000e-01,     1450, 1.684290e+03, 2.548099e-01
    8,     1,     8,    FringeOMP, 4.000000e-01,     1453, 1.684256e+03, 2.595613e-01
    8,     1,     8,    FringeOMP, 4.000000e-01,     1450, 1.684323e+03, 2.530370e-01
    8,     1,     8,    FringeOMP, 4.000000e-01,     1450, 1.684311e+03, 2.522471e-01
    8,     1,     8,    FringeOMP, 4.000000e-01,     1449, 1.684556e+03, 2.505231e-01
    8,     1,     8,    FringeOMP, 4.000000e-01,     1447, 1.684556e+03, 2.654980e-01
    8,     1,     8,    FringeOMP, 4.000000e-01,     1455, 1.684717e+03, 2.579060e-01
