NumCores,NumMPIProcs,NumOMPThreads,Method,CostRelaxation,AvgFringeSize,PathLength,Runtime
    1,     1,     1,    Seq, 1.000000e+02,      255, 4.951569e+03, 3.099887e+00
    1,     1,     1,    Seq, 1.000000e+02,      255, 4.951569e+03, 3.117948e+00
    1,     1,     1,    Seq, 1.000000e+02,      255, 4.951569e+03, 3.115974e+00
    1,     1,     1,    Seq, 1.000000e+02,      255, 4.951569e+03, 3.103672e+00
    1,     1,     1,    Seq, 1.000000e+02,      255, 4.951569e+03, 3.102995e+00
    1,     1,     1,    Seq, 1.000000e+02,      255, 4.951569e+03, 3.105449e+00
    1,     1,     1,    Seq, 1.000000e+02,      255, 4.951569e+03, 3.106751e+00
    1,     1,     1,    Seq, 1.000000e+02,      255, 4.951569e+03, 3.112573e+00
    1,     1,     1,    Seq, 1.000000e+02,      255, 4.951569e+03, 3.243066e+00
    1,     1,     1,    Seq, 1.000000e+02,      255, 4.951569e+03, 3.187709e+00
    1,     1,     1,        Astar, 1.000000e+02,        0, 4.730225e+03, 6.383225e+00
    1,     1,     1,        Astar, 1.000000e+02,        0, 4.730225e+03, 6.276559e+00
    1,     1,     1,        Astar, 1.000000e+02,        0, 4.730225e+03, 6.287073e+00
    1,     1,     1,        Astar, 1.000000e+02,        0, 4.730225e+03, 6.159804e+00
    1,     1,     1,        Astar, 1.000000e+02,        0, 4.730225e+03, 6.118154e+00
    1,     1,     1,        Astar, 1.000000e+02,        0, 4.730225e+03, 6.150117e+00
    1,     1,     1,        Astar, 1.000000e+02,        0, 4.730225e+03, 6.112754e+00
    1,     1,     1,        Astar, 1.000000e+02,        0, 4.730225e+03, 6.105893e+00
    1,     1,     1,        Astar, 1.000000e+02,        0, 4.730225e+03, 6.124891e+00
    1,     1,     1,        Astar, 1.000000e+02,        0, 4.730225e+03, 6.126438e+00
    1,     1,     1,    OMP, 1.000000e+02,      255, 4.951569e+03, 3.263806e+00
    1,     1,     1,    OMP, 1.000000e+02,      255, 4.951569e+03, 3.267670e+00
    1,     1,     1,    OMP, 1.000000e+02,      255, 4.951569e+03, 3.262920e+00
    1,     1,     1,    OMP, 1.000000e+02,      255, 4.951569e+03, 3.260693e+00
    1,     1,     1,    OMP, 1.000000e+02,      255, 4.951569e+03, 3.315627e+00
    1,     1,     1,    OMP, 1.000000e+02,      255, 4.951569e+03, 3.340549e+00
    1,     1,     1,    OMP, 1.000000e+02,      255, 4.951569e+03, 3.267143e+00
    1,     1,     1,    OMP, 1.000000e+02,      255, 4.951569e+03, 3.282863e+00
    1,     1,     1,    OMP, 1.000000e+02,      255, 4.951569e+03, 3.441919e+00
    1,     1,     1,    OMP, 1.000000e+02,      255, 4.951569e+03, 3.557173e+00
    1,     1,     1,  OMPfs, 1.000000e+02,      255, 4.951569e+03, 3.866750e+00
    1,     1,     1,  OMPfs, 1.000000e+02,      255, 4.951569e+03, 3.754784e+00
    1,     1,     1,  OMPfs, 1.000000e+02,      255, 4.951569e+03, 3.749627e+00
    1,     1,     1,  OMPfs, 1.000000e+02,      255, 4.951569e+03, 3.764362e+00
    1,     1,     1,  OMPfs, 1.000000e+02,      255, 4.951569e+03, 3.750941e+00
    1,     1,     1,  OMPfs, 1.000000e+02,      255, 4.951569e+03, 3.752190e+00
    1,     1,     1,  OMPfs, 1.000000e+02,      255, 4.951569e+03, 3.850660e+00
    1,     1,     1,  OMPfs, 1.000000e+02,      255, 4.951569e+03, 3.733680e+00
    1,     1,     1,  OMPfs, 1.000000e+02,      255, 4.951569e+03, 3.724338e+00
    1,     1,     1,  OMPfs, 1.000000e+02,      255, 4.951569e+03, 3.724980e+00
    1,     1,     1,  OMP+MPI1p, 1.000000e+02,      255, 4.951569e+03, 4.445062e+00
    1,     1,     1,  OMP+MPI1p, 1.000000e+02,      255, 4.951569e+03, 4.566734e+00
    1,     1,     1,  OMP+MPI1p, 1.000000e+02,      255, 4.951569e+03, 4.538876e+00
    1,     1,     1,  OMP+MPI1p, 1.000000e+02,      255, 4.951569e+03, 4.646033e+00
    1,     1,     1,  OMP+MPI1p, 1.000000e+02,      255, 4.951569e+03, 4.599560e+00
    1,     1,     1,  OMP+MPI1p, 1.000000e+02,      255, 4.951569e+03, 4.468087e+00
    1,     1,     1,  OMP+MPI1p, 1.000000e+02,      255, 4.951569e+03, 4.440790e+00
    1,     1,     1,  OMP+MPI1p, 1.000000e+02,      255, 4.951569e+03, 4.397158e+00
    1,     1,     1,  OMP+MPI1p, 1.000000e+02,      255, 4.951569e+03, 4.407097e+00
    1,     1,     1,  OMP+MPI1p, 1.000000e+02,      255, 4.951569e+03, 4.413473e+00
    2,     1,     2,    OMP, 1.000000e+02,      255, 4.966269e+03, 1.920734e+00
    2,     1,     2,    OMP, 1.000000e+02,      255, 4.966331e+03, 2.013924e+00
    2,     1,     2,    OMP, 1.000000e+02,      255, 4.963492e+03, 1.938640e+00
    2,     1,     2,    OMP, 1.000000e+02,      255, 4.951588e+03, 1.871606e+00
    2,     1,     2,    OMP, 1.000000e+02,      255, 4.966295e+03, 1.869184e+00
    2,     1,     2,    OMP, 1.000000e+02,      255, 4.966470e+03, 1.859736e+00
    2,     1,     2,    OMP, 1.000000e+02,      255, 4.951575e+03, 1.863276e+00
    2,     1,     2,    OMP, 1.000000e+02,      255, 4.951507e+03, 1.862781e+00
    2,     1,     2,    OMP, 1.000000e+02,      255, 4.966229e+03, 1.859442e+00
    2,     1,     2,    OMP, 1.000000e+02,      254, 4.951489e+03, 1.859397e+00
    2,     1,     2,  OMPfs, 1.000000e+02,      255, 4.952587e+03, 2.406844e+00
    2,     1,     2,  OMPfs, 1.000000e+02,      254, 4.966000e+03, 2.398660e+00
    2,     1,     2,  OMPfs, 1.000000e+02,      255, 4.954726e+03, 2.410822e+00
    2,     1,     2,  OMPfs, 1.000000e+02,      254, 4.948799e+03, 2.399617e+00
    2,     1,     2,  OMPfs, 1.000000e+02,      257, 4.963576e+03, 2.400996e+00
    2,     1,     2,  OMPfs, 1.000000e+02,      255, 4.965982e+03, 2.390943e+00
    2,     1,     2,  OMPfs, 1.000000e+02,      255, 4.949015e+03, 2.386970e+00
    2,     1,     2,  OMPfs, 1.000000e+02,      255, 4.966628e+03, 2.384356e+00
    2,     1,     2,  OMPfs, 1.000000e+02,      257, 4.969229e+03, 2.389780e+00
    2,     1,     2,  OMPfs, 1.000000e+02,      256, 4.964411e+03, 2.381441e+00
    2,     1,     2,  OMP+MPI1p, 1.000000e+02,      255, 4.965564e+03, 2.883548e+00
    2,     1,     2,  OMP+MPI1p, 1.000000e+02,      255, 4.966394e+03, 2.879776e+00
    2,     1,     2,  OMP+MPI1p, 1.000000e+02,      255, 4.965781e+03, 2.888040e+00
    2,     1,     2,  OMP+MPI1p, 1.000000e+02,      255, 4.964804e+03, 2.906691e+00
    2,     1,     2,  OMP+MPI1p, 1.000000e+02,      255, 4.966400e+03, 2.953391e+00
    2,     1,     2,  OMP+MPI1p, 1.000000e+02,      257, 4.968918e+03, 3.059028e+00
    2,     1,     2,  OMP+MPI1p, 1.000000e+02,      255, 4.966232e+03, 2.853132e+00
    2,     1,     2,  OMP+MPI1p, 1.000000e+02,      255, 4.966312e+03, 2.851376e+00
    2,     1,     2,  OMP+MPI1p, 1.000000e+02,      255, 4.951539e+03, 2.854262e+00
    2,     1,     2,  OMP+MPI1p, 1.000000e+02,      255, 4.964497e+03, 2.853493e+00
    3,     1,     3,    OMP, 1.000000e+02,      256, 4.967779e+03, 1.333204e+00
    3,     1,     3,    OMP, 1.000000e+02,      255, 4.951488e+03, 1.313189e+00
    3,     1,     3,    OMP, 1.000000e+02,      257, 4.968567e+03, 1.325901e+00
    3,     1,     3,    OMP, 1.000000e+02,      255, 4.951680e+03, 1.340593e+00
    3,     1,     3,    OMP, 1.000000e+02,      255, 4.951336e+03, 1.336746e+00
    3,     1,     3,    OMP, 1.000000e+02,      256, 4.954348e+03, 1.344246e+00
    3,     1,     3,    OMP, 1.000000e+02,      255, 4.966393e+03, 1.342376e+00
    3,     1,     3,    OMP, 1.000000e+02,      255, 4.967283e+03, 1.334008e+00
    3,     1,     3,    OMP, 1.000000e+02,      255, 4.951690e+03, 1.343922e+00
    3,     1,     3,    OMP, 1.000000e+02,      256, 4.954617e+03, 1.359168e+00
    3,     1,     3,  OMPfs, 1.000000e+02,      255, 4.948994e+03, 1.964889e+00
    3,     1,     3,  OMPfs, 1.000000e+02,      255, 4.966161e+03, 1.964721e+00
    3,     1,     3,  OMPfs, 1.000000e+02,      255, 4.951795e+03, 2.002112e+00
    3,     1,     3,  OMPfs, 1.000000e+02,      254, 4.964189e+03, 1.995394e+00
    3,     1,     3,  OMPfs, 1.000000e+02,      256, 4.968861e+03, 1.994979e+00
    3,     1,     3,  OMPfs, 1.000000e+02,      255, 4.952296e+03, 2.009028e+00
    3,     1,     3,  OMPfs, 1.000000e+02,      255, 4.963479e+03, 1.989045e+00
    3,     1,     3,  OMPfs, 1.000000e+02,      256, 4.948640e+03, 2.005252e+00
    3,     1,     3,  OMPfs, 1.000000e+02,      255, 4.963415e+03, 1.991003e+00
    3,     1,     3,  OMPfs, 1.000000e+02,      255, 4.951960e+03, 2.190675e+00
    3,     1,     3,  OMP+MPI1p, 1.000000e+02,      255, 4.951438e+03, 2.548579e+00
    3,     1,     3,  OMP+MPI1p, 1.000000e+02,      256, 4.954388e+03, 2.447168e+00
    3,     1,     3,  OMP+MPI1p, 1.000000e+02,      256, 4.969384e+03, 2.435419e+00
    3,     1,     3,  OMP+MPI1p, 1.000000e+02,      255, 4.966416e+03, 2.362858e+00
    3,     1,     3,  OMP+MPI1p, 1.000000e+02,      254, 4.948352e+03, 2.446906e+00
    3,     1,     3,  OMP+MPI1p, 1.000000e+02,      255, 4.965884e+03, 2.508701e+00
    3,     1,     3,  OMP+MPI1p, 1.000000e+02,      256, 4.954289e+03, 2.676737e+00
    3,     1,     3,  OMP+MPI1p, 1.000000e+02,      255, 4.951557e+03, 2.565615e+00
    3,     1,     3,  OMP+MPI1p, 1.000000e+02,      255, 4.967402e+03, 2.402633e+00
    3,     1,     3,  OMP+MPI1p, 1.000000e+02,      255, 4.966205e+03, 2.391101e+00
    4,     1,     4,    OMP, 1.000000e+02,      255, 4.951715e+03, 1.135366e+00
    4,     1,     4,    OMP, 1.000000e+02,      255, 4.951552e+03, 1.216652e+00
    4,     1,     4,    OMP, 1.000000e+02,      255, 4.966320e+03, 1.223578e+00
    4,     1,     4,    OMP, 1.000000e+02,      255, 4.965915e+03, 1.125557e+00
    4,     1,     4,    OMP, 1.000000e+02,      255, 4.962324e+03, 1.117467e+00
    4,     1,     4,    OMP, 1.000000e+02,      255, 4.968600e+03, 1.120803e+00
    4,     1,     4,    OMP, 1.000000e+02,      255, 4.951477e+03, 1.116631e+00
    4,     1,     4,    OMP, 1.000000e+02,      255, 4.965753e+03, 1.116160e+00
    4,     1,     4,    OMP, 1.000000e+02,      255, 4.951126e+03, 1.104442e+00
    4,     1,     4,    OMP, 1.000000e+02,      255, 4.966285e+03, 1.133802e+00
    4,     1,     4,  OMPfs, 1.000000e+02,      257, 4.954573e+03, 1.852005e+00
    4,     1,     4,  OMPfs, 1.000000e+02,      255, 4.951504e+03, 1.899260e+00
    4,     1,     4,  OMPfs, 1.000000e+02,      256, 4.954207e+03, 1.884810e+00
    4,     1,     4,  OMPfs, 1.000000e+02,      255, 4.948942e+03, 1.864127e+00
    4,     1,     4,  OMPfs, 1.000000e+02,      256, 4.967839e+03, 1.883224e+00
    4,     1,     4,  OMPfs, 1.000000e+02,      255, 4.966346e+03, 1.917627e+00
    4,     1,     4,  OMPfs, 1.000000e+02,      255, 4.963021e+03, 1.929344e+00
    4,     1,     4,  OMPfs, 1.000000e+02,      255, 4.951555e+03, 1.921775e+00
    4,     1,     4,  OMPfs, 1.000000e+02,      254, 4.952229e+03, 2.018212e+00
    4,     1,     4,  OMPfs, 1.000000e+02,      254, 4.951493e+03, 1.977285e+00
    4,     1,     4,  OMP+MPI1p, 1.000000e+02,      255, 4.966304e+03, 2.151760e+00
    4,     1,     4,  OMP+MPI1p, 1.000000e+02,      255, 4.963445e+03, 2.231321e+00
    4,     1,     4,  OMP+MPI1p, 1.000000e+02,      255, 4.951464e+03, 2.231565e+00
    4,     1,     4,  OMP+MPI1p, 1.000000e+02,      255, 4.948464e+03, 2.131923e+00
    4,     1,     4,  OMP+MPI1p, 1.000000e+02,      255, 4.951655e+03, 2.152192e+00
    4,     1,     4,  OMP+MPI1p, 1.000000e+02,      254, 4.951470e+03, 2.158177e+00
    4,     1,     4,  OMP+MPI1p, 1.000000e+02,      255, 4.964643e+03, 2.286970e+00
    4,     1,     4,  OMP+MPI1p, 1.000000e+02,      255, 4.951549e+03, 2.172172e+00
    4,     1,     4,  OMP+MPI1p, 1.000000e+02,      255, 4.966428e+03, 2.131610e+00
    4,     1,     4,  OMP+MPI1p, 1.000000e+02,      255, 4.951638e+03, 2.275138e+00
    5,     1,     5,    OMP, 1.000000e+02,      256, 4.954540e+03, 1.140597e+00
    5,     1,     5,    OMP, 1.000000e+02,      255, 4.951515e+03, 1.025983e+00
    5,     1,     5,    OMP, 1.000000e+02,      255, 4.951633e+03, 1.025360e+00
    5,     1,     5,    OMP, 1.000000e+02,      256, 4.954293e+03, 1.029883e+00
    5,     1,     5,    OMP, 1.000000e+02,      255, 4.965715e+03, 1.010444e+00
    5,     1,     5,    OMP, 1.000000e+02,      255, 4.964657e+03, 1.042936e+00
    5,     1,     5,    OMP, 1.000000e+02,      256, 4.954000e+03, 1.012503e+00
    5,     1,     5,    OMP, 1.000000e+02,      257, 4.954425e+03, 1.033312e+00
    5,     1,     5,    OMP, 1.000000e+02,      256, 4.968588e+03, 1.033470e+00
    5,     1,     5,    OMP, 1.000000e+02,      254, 4.951426e+03, 9.988323e-01
    5,     1,     5,  OMPfs, 1.000000e+02,      255, 4.949812e+03, 1.710607e+00
    5,     1,     5,  OMPfs, 1.000000e+02,      255, 4.966354e+03, 1.708096e+00
    5,     1,     5,  OMPfs, 1.000000e+02,      255, 4.951638e+03, 1.703039e+00
    5,     1,     5,  OMPfs, 1.000000e+02,      255, 4.966297e+03, 1.704649e+00
    5,     1,     5,  OMPfs, 1.000000e+02,      254, 4.948577e+03, 1.713977e+00
    5,     1,     5,  OMPfs, 1.000000e+02,      257, 4.968756e+03, 1.702726e+00
    5,     1,     5,  OMPfs, 1.000000e+02,      255, 4.966458e+03, 1.686031e+00
    5,     1,     5,  OMPfs, 1.000000e+02,      257, 4.954083e+03, 1.697735e+00
    5,     1,     5,  OMPfs, 1.000000e+02,      254, 4.964763e+03, 1.688447e+00
    5,     1,     5,  OMPfs, 1.000000e+02,      254, 4.966689e+03, 1.687933e+00
    5,     1,     5,  OMP+MPI1p, 1.000000e+02,      256, 4.969294e+03, 1.995339e+00
    5,     1,     5,  OMP+MPI1p, 1.000000e+02,      255, 4.951450e+03, 2.001850e+00
    5,     1,     5,  OMP+MPI1p, 1.000000e+02,      256, 4.950914e+03, 2.011070e+00
    5,     1,     5,  OMP+MPI1p, 1.000000e+02,      257, 4.954457e+03, 1.996964e+00
    5,     1,     5,  OMP+MPI1p, 1.000000e+02,      257, 4.954444e+03, 2.029027e+00
    5,     1,     5,  OMP+MPI1p, 1.000000e+02,      255, 4.951718e+03, 2.008022e+00
    5,     1,     5,  OMP+MPI1p, 1.000000e+02,      255, 4.963000e+03, 2.006136e+00
    5,     1,     5,  OMP+MPI1p, 1.000000e+02,      255, 4.951697e+03, 2.033280e+00
    5,     1,     5,  OMP+MPI1p, 1.000000e+02,      254, 4.964616e+03, 2.034614e+00
    5,     1,     5,  OMP+MPI1p, 1.000000e+02,      257, 4.954941e+03, 2.008282e+00
    6,     1,     6,    OMP, 1.000000e+02,      257, 4.969140e+03, 8.769394e-01
    6,     1,     6,    OMP, 1.000000e+02,      255, 4.964875e+03, 9.027526e-01
    6,     1,     6,    OMP, 1.000000e+02,      254, 4.966194e+03, 9.208204e-01
    6,     1,     6,    OMP, 1.000000e+02,      255, 4.966151e+03, 9.106946e-01
    6,     1,     6,    OMP, 1.000000e+02,      257, 4.969223e+03, 9.093489e-01
    6,     1,     6,    OMP, 1.000000e+02,      255, 4.966231e+03, 8.966042e-01
    6,     1,     6,    OMP, 1.000000e+02,      256, 4.967648e+03, 9.361353e-01
    6,     1,     6,    OMP, 1.000000e+02,      255, 4.964906e+03, 9.232805e-01
    6,     1,     6,    OMP, 1.000000e+02,      254, 4.948669e+03, 9.299597e-01
    6,     1,     6,    OMP, 1.000000e+02,      255, 4.965949e+03, 9.270929e-01
    6,     1,     6,  OMPfs, 1.000000e+02,      256, 4.954369e+03, 1.816456e+00
    6,     1,     6,  OMPfs, 1.000000e+02,      255, 4.964555e+03, 1.819478e+00
    6,     1,     6,  OMPfs, 1.000000e+02,      256, 4.967959e+03, 1.862273e+00
    6,     1,     6,  OMPfs, 1.000000e+02,      255, 4.948319e+03, 1.836725e+00
    6,     1,     6,  OMPfs, 1.000000e+02,      255, 4.951592e+03, 1.857840e+00
    6,     1,     6,  OMPfs, 1.000000e+02,      255, 4.966306e+03, 1.864208e+00
    6,     1,     6,  OMPfs, 1.000000e+02,      254, 4.951856e+03, 1.883494e+00
    6,     1,     6,  OMPfs, 1.000000e+02,      254, 4.948737e+03, 2.063866e+00
    6,     1,     6,  OMPfs, 1.000000e+02,      255, 4.965853e+03, 2.034717e+00
    6,     1,     6,  OMPfs, 1.000000e+02,      255, 4.965766e+03, 2.032268e+00
    6,     1,     6,  OMP+MPI1p, 1.000000e+02,      256, 4.954303e+03, 1.953396e+00
    6,     1,     6,  OMP+MPI1p, 1.000000e+02,      256, 4.969015e+03, 1.964641e+00
    6,     1,     6,  OMP+MPI1p, 1.000000e+02,      254, 4.964692e+03, 1.962767e+00
    6,     1,     6,  OMP+MPI1p, 1.000000e+02,      255, 4.951662e+03, 1.954588e+00
    6,     1,     6,  OMP+MPI1p, 1.000000e+02,      257, 4.969086e+03, 1.942600e+00
    6,     1,     6,  OMP+MPI1p, 1.000000e+02,      257, 4.969131e+03, 1.955096e+00
    6,     1,     6,  OMP+MPI1p, 1.000000e+02,      257, 4.967379e+03, 1.942222e+00
    6,     1,     6,  OMP+MPI1p, 1.000000e+02,      255, 4.964658e+03, 1.985595e+00
    6,     1,     6,  OMP+MPI1p, 1.000000e+02,      257, 4.954408e+03, 1.946135e+00
    6,     1,     6,  OMP+MPI1p, 1.000000e+02,      256, 4.969056e+03, 1.957215e+00
    7,     1,     7,    OMP, 1.000000e+02,      256, 4.954284e+03, 9.038153e-01
    7,     1,     7,    OMP, 1.000000e+02,      255, 4.963309e+03, 9.297900e-01
    7,     1,     7,    OMP, 1.000000e+02,      254, 4.961646e+03, 9.107036e-01
    7,     1,     7,    OMP, 1.000000e+02,      257, 4.969281e+03, 8.956478e-01
    7,     1,     7,    OMP, 1.000000e+02,      255, 4.965826e+03, 8.986231e-01
    7,     1,     7,    OMP, 1.000000e+02,      257, 4.969219e+03, 9.195385e-01
    7,     1,     7,    OMP, 1.000000e+02,      254, 4.965627e+03, 9.337471e-01
    7,     1,     7,    OMP, 1.000000e+02,      255, 4.951623e+03, 9.474372e-01
    7,     1,     7,    OMP, 1.000000e+02,      255, 4.965714e+03, 9.429980e-01
    7,     1,     7,    OMP, 1.000000e+02,      255, 4.966452e+03, 9.705072e-01
    7,     1,     7,  OMPfs, 1.000000e+02,      255, 4.951381e+03, 1.880688e+00
    7,     1,     7,  OMPfs, 1.000000e+02,      254, 4.951592e+03, 1.912800e+00
    7,     1,     7,  OMPfs, 1.000000e+02,      254, 4.951127e+03, 1.903536e+00
    7,     1,     7,  OMPfs, 1.000000e+02,      257, 4.953937e+03, 2.022317e+00
    7,     1,     7,  OMPfs, 1.000000e+02,      256, 4.954813e+03, 2.027257e+00
    7,     1,     7,  OMPfs, 1.000000e+02,      255, 4.967538e+03, 1.972034e+00
    7,     1,     7,  OMPfs, 1.000000e+02,      255, 4.949164e+03, 1.948027e+00
    7,     1,     7,  OMPfs, 1.000000e+02,      254, 4.964715e+03, 2.028639e+00
    7,     1,     7,  OMPfs, 1.000000e+02,      256, 4.954075e+03, 2.032106e+00
    7,     1,     7,  OMPfs, 1.000000e+02,      257, 4.969414e+03, 2.023838e+00
    7,     1,     7,  OMP+MPI1p, 1.000000e+02,      255, 4.951334e+03, 1.960561e+00
    7,     1,     7,  OMP+MPI1p, 1.000000e+02,      255, 4.948937e+03, 1.943842e+00
    7,     1,     7,  OMP+MPI1p, 1.000000e+02,      255, 4.951601e+03, 1.941294e+00
    7,     1,     7,  OMP+MPI1p, 1.000000e+02,      255, 4.966366e+03, 1.952245e+00
    7,     1,     7,  OMP+MPI1p, 1.000000e+02,      257, 4.954296e+03, 2.001254e+00
    7,     1,     7,  OMP+MPI1p, 1.000000e+02,      257, 4.954404e+03, 1.970080e+00
    7,     1,     7,  OMP+MPI1p, 1.000000e+02,      257, 4.953743e+03, 1.961250e+00
    7,     1,     7,  OMP+MPI1p, 1.000000e+02,      255, 4.951551e+03, 1.940491e+00
    7,     1,     7,  OMP+MPI1p, 1.000000e+02,      255, 4.965119e+03, 1.960177e+00
    7,     1,     7,  OMP+MPI1p, 1.000000e+02,      254, 4.951495e+03, 1.940937e+00
    8,     1,     8,    OMP, 1.000000e+02,      255, 4.951444e+03, 8.247464e-01
    8,     1,     8,    OMP, 1.000000e+02,      256, 4.954252e+03, 8.753527e-01
    8,     1,     8,    OMP, 1.000000e+02,      256, 4.954282e+03, 8.671670e-01
    8,     1,     8,    OMP, 1.000000e+02,      254, 4.961750e+03, 9.012376e-01
    8,     1,     8,    OMP, 1.000000e+02,      255, 4.964647e+03, 9.097808e-01
    8,     1,     8,    OMP, 1.000000e+02,      257, 4.954611e+03, 9.035414e-01
    8,     1,     8,    OMP, 1.000000e+02,      255, 4.964441e+03, 9.224766e-01
    8,     1,     8,    OMP, 1.000000e+02,      255, 4.966257e+03, 8.999512e-01
    8,     1,     8,    OMP, 1.000000e+02,      255, 4.964449e+03, 9.669572e-01
    8,     1,     8,    OMP, 1.000000e+02,      255, 4.954239e+03, 9.360504e-01
    8,     1,     8,  OMPfs, 1.000000e+02,      256, 4.968715e+03, 1.964019e+00
    8,     1,     8,  OMPfs, 1.000000e+02,      254, 4.965731e+03, 2.112444e+00
    8,     1,     8,  OMPfs, 1.000000e+02,      254, 4.951863e+03, 1.970657e+00
    8,     1,     8,  OMPfs, 1.000000e+02,      256, 4.954953e+03, 2.011029e+00
    8,     1,     8,  OMPfs, 1.000000e+02,      254, 4.963790e+03, 2.075412e+00
    8,     1,     8,  OMPfs, 1.000000e+02,      255, 4.948807e+03, 2.126254e+00
    8,     1,     8,  OMPfs, 1.000000e+02,      255, 4.948838e+03, 2.050972e+00
    8,     1,     8,  OMPfs, 1.000000e+02,      256, 4.954167e+03, 2.089773e+00
    8,     1,     8,  OMPfs, 1.000000e+02,      255, 4.949065e+03, 2.041691e+00
    8,     1,     8,  OMPfs, 1.000000e+02,      254, 4.951652e+03, 2.044112e+00
    8,     1,     8,  OMP+MPI1p, 1.000000e+02,      256, 4.954505e+03, 1.947224e+00
    8,     1,     8,  OMP+MPI1p, 1.000000e+02,      255, 4.964619e+03, 1.922725e+00
    8,     1,     8,  OMP+MPI1p, 1.000000e+02,      256, 4.967409e+03, 1.935270e+00
    8,     1,     8,  OMP+MPI1p, 1.000000e+02,      255, 4.951435e+03, 1.927189e+00
    8,     1,     8,  OMP+MPI1p, 1.000000e+02,      256, 4.967577e+03, 1.928269e+00
    8,     1,     8,  OMP+MPI1p, 1.000000e+02,      255, 4.965574e+03, 1.926691e+00
    8,     1,     8,  OMP+MPI1p, 1.000000e+02,      255, 4.966272e+03, 1.949062e+00
    8,     1,     8,  OMP+MPI1p, 1.000000e+02,      255, 4.951637e+03, 1.974247e+00
    8,     1,     8,  OMP+MPI1p, 1.000000e+02,      257, 4.967605e+03, 1.936281e+00
    8,     1,     8,  OMP+MPI1p, 1.000000e+02,      256, 4.969001e+03, 1.940330e+00
    2,     2,     1,  OMP+MPI2p, 1.000000e+02,      260, 4.951569e+03, 4.208665e+00
    2,     2,     1,  OMP+MPI2p, 1.000000e+02,      260, 4.951569e+03, 4.370092e+00
    2,     2,     1,  OMP+MPI2p, 1.000000e+02,      260, 4.951569e+03, 4.218500e+00
    2,     2,     1,  OMP+MPI2p, 1.000000e+02,      260, 4.951569e+03, 4.188182e+00
    2,     2,     1,  OMP+MPI2p, 1.000000e+02,      260, 4.951569e+03, 4.181586e+00
    2,     2,     1,  OMP+MPI2p, 1.000000e+02,      260, 4.951569e+03, 4.461183e+00
    2,     2,     1,  OMP+MPI2p, 1.000000e+02,      260, 4.951569e+03, 4.328314e+00
    2,     2,     1,  OMP+MPI2p, 1.000000e+02,      260, 4.951569e+03, 4.361387e+00
    2,     2,     1,  OMP+MPI2p, 1.000000e+02,      260, 4.951569e+03, 4.317059e+00
    2,     2,     1,  OMP+MPI2p, 1.000000e+02,      260, 4.951569e+03, 4.295497e+00
    4,     2,     2,  OMP+MPI2p, 1.000000e+02,      262, 4.966709e+03, 3.147324e+00
    4,     2,     2,  OMP+MPI2p, 1.000000e+02,      258, 4.964529e+03, 3.305034e+00
    4,     2,     2,  OMP+MPI2p, 1.000000e+02,      260, 4.965748e+03, 3.218761e+00
    4,     2,     2,  OMP+MPI2p, 1.000000e+02,      273, 4.969037e+03, 3.353387e+00
    4,     2,     2,  OMP+MPI2p, 1.000000e+02,      258, 4.951560e+03, 3.248184e+00
    4,     2,     2,  OMP+MPI2p, 1.000000e+02,      274, 4.954327e+03, 3.359167e+00
    4,     2,     2,  OMP+MPI2p, 1.000000e+02,      272, 4.953824e+03, 3.299649e+00
    4,     2,     2,  OMP+MPI2p, 1.000000e+02,      257, 4.964595e+03, 3.243531e+00
    4,     2,     2,  OMP+MPI2p, 1.000000e+02,      278, 4.966196e+03, 3.371663e+00
    4,     2,     2,  OMP+MPI2p, 1.000000e+02,      258, 4.954393e+03, 3.231522e+00
    6,     2,     3,  OMP+MPI2p, 1.000000e+02,      261, 4.963356e+03, 2.936792e+00
    6,     2,     3,  OMP+MPI2p, 1.000000e+02,      261, 4.969121e+03, 2.969724e+00
    6,     2,     3,  OMP+MPI2p, 1.000000e+02,      259, 4.954664e+03, 3.011337e+00
    6,     2,     3,  OMP+MPI2p, 1.000000e+02,      259, 4.961775e+03, 2.985716e+00
    6,     2,     3,  OMP+MPI2p, 1.000000e+02,      257, 4.965775e+03, 2.936790e+00
    6,     2,     3,  OMP+MPI2p, 1.000000e+02,      257, 4.951046e+03, 2.918867e+00
    6,     2,     3,  OMP+MPI2p, 1.000000e+02,      258, 4.964512e+03, 2.969256e+00
    6,     2,     3,  OMP+MPI2p, 1.000000e+02,      259, 4.951325e+03, 2.969741e+00
    6,     2,     3,  OMP+MPI2p, 1.000000e+02,      257, 4.951681e+03, 2.971408e+00
    6,     2,     3,  OMP+MPI2p, 1.000000e+02,      266, 4.951119e+03, 3.028279e+00
    8,     2,     4,  OMP+MPI2p, 1.000000e+02,      264, 4.951532e+03, 2.901264e+00
    8,     2,     4,  OMP+MPI2p, 1.000000e+02,      270, 4.969047e+03, 3.056441e+00
    8,     2,     4,  OMP+MPI2p, 1.000000e+02,      259, 4.965674e+03, 3.043089e+00
    8,     2,     4,  OMP+MPI2p, 1.000000e+02,      263, 4.954097e+03, 3.023638e+00
    8,     2,     4,  OMP+MPI2p, 1.000000e+02,      267, 4.954478e+03, 3.000712e+00
    8,     2,     4,  OMP+MPI2p, 1.000000e+02,      261, 4.967600e+03, 3.073324e+00
    8,     2,     4,  OMP+MPI2p, 1.000000e+02,      260, 4.951202e+03, 3.088991e+00
    8,     2,     4,  OMP+MPI2p, 1.000000e+02,      257, 4.951458e+03, 3.086674e+00
    8,     2,     4,  OMP+MPI2p, 1.000000e+02,      259, 4.951183e+03, 3.085344e+00
    8,     2,     4,  OMP+MPI2p, 1.000000e+02,      257, 4.963304e+03, 3.035506e+00
    3,     3,     1,  OMP+MPI3p, 1.000000e+02,      261, 4.951569e+03, 4.213990e+00
    3,     3,     1,  OMP+MPI3p, 1.000000e+02,      261, 4.951569e+03, 4.256001e+00
    3,     3,     1,  OMP+MPI3p, 1.000000e+02,      261, 4.951569e+03, 4.273022e+00
    3,     3,     1,  OMP+MPI3p, 1.000000e+02,      261, 4.951569e+03, 4.264444e+00
    3,     3,     1,  OMP+MPI3p, 1.000000e+02,      261, 4.951569e+03, 4.229393e+00
    3,     3,     1,  OMP+MPI3p, 1.000000e+02,      261, 4.951569e+03, 4.226733e+00
    3,     3,     1,  OMP+MPI3p, 1.000000e+02,      261, 4.951569e+03, 4.337994e+00
    3,     3,     1,  OMP+MPI3p, 1.000000e+02,      261, 4.951569e+03, 4.251518e+00
    3,     3,     1,  OMP+MPI3p, 1.000000e+02,      261, 4.951569e+03, 4.272527e+00
    3,     3,     1,  OMP+MPI3p, 1.000000e+02,      261, 4.951569e+03, 4.271509e+00
    6,     3,     2,  OMP+MPI3p, 1.000000e+02,      260, 4.951454e+03, 3.706310e+00
    6,     3,     2,  OMP+MPI3p, 1.000000e+02,      262, 4.966438e+03, 3.754650e+00
    6,     3,     2,  OMP+MPI3p, 1.000000e+02,      271, 4.954320e+03, 3.943194e+00
    6,     3,     2,  OMP+MPI3p, 1.000000e+02,      258, 4.950967e+03, 3.668820e+00
    6,     3,     2,  OMP+MPI3p, 1.000000e+02,      259, 4.951511e+03, 3.813008e+00
    6,     3,     2,  OMP+MPI3p, 1.000000e+02,      258, 4.951465e+03, 3.640406e+00
    6,     3,     2,  OMP+MPI3p, 1.000000e+02,      274, 4.966314e+03, 3.768748e+00
    6,     3,     2,  OMP+MPI3p, 1.000000e+02,      260, 4.954273e+03, 3.925016e+00
    6,     3,     2,  OMP+MPI3p, 1.000000e+02,      263, 4.967472e+03, 3.689226e+00
    6,     3,     2,  OMP+MPI3p, 1.000000e+02,      272, 4.951486e+03, 3.797696e+00
    4,     4,     1,  OMP+MPI4p, 1.000000e+02,      263, 4.964481e+03, 4.750028e+00
    4,     4,     1,  OMP+MPI4p, 1.000000e+02,      263, 4.964481e+03, 4.748038e+00
    4,     4,     1,  OMP+MPI4p, 1.000000e+02,      263, 4.964481e+03, 4.853418e+00
    4,     4,     1,  OMP+MPI4p, 1.000000e+02,      263, 4.964481e+03, 5.036625e+00
    4,     4,     1,  OMP+MPI4p, 1.000000e+02,      263, 4.964481e+03, 4.758121e+00
    4,     4,     1,  OMP+MPI4p, 1.000000e+02,      263, 4.964481e+03, 4.923117e+00
    4,     4,     1,  OMP+MPI4p, 1.000000e+02,      263, 4.964481e+03, 4.924606e+00
    4,     4,     1,  OMP+MPI4p, 1.000000e+02,      263, 4.964481e+03, 5.005731e+00
    4,     4,     1,  OMP+MPI4p, 1.000000e+02,      263, 4.964481e+03, 5.176879e+00
    4,     4,     1,  OMP+MPI4p, 1.000000e+02,      263, 4.964481e+03, 4.842214e+00
    8,     4,     2,  OMP+MPI4p, 1.000000e+02,      285, 4.953676e+03, 4.480775e+00
    8,     4,     2,  OMP+MPI4p, 1.000000e+02,      256, 4.964558e+03, 4.209493e+00
    8,     4,     2,  OMP+MPI4p, 1.000000e+02,      259, 4.952011e+03, 4.098526e+00
    8,     4,     2,  OMP+MPI4p, 1.000000e+02,      262, 4.951478e+03, 4.017775e+00
    8,     4,     2,  OMP+MPI4p, 1.000000e+02,      257, 4.964479e+03, 4.066677e+00
    8,     4,     2,  OMP+MPI4p, 1.000000e+02,      282, 4.954338e+03, 4.778716e+00
    8,     4,     2,  OMP+MPI4p, 1.000000e+02,      274, 4.968615e+03, 4.333603e+00
    8,     4,     2,  OMP+MPI4p, 1.000000e+02,      259, 4.965697e+03, 4.229465e+00
    8,     4,     2,  OMP+MPI4p, 1.000000e+02,      286, 4.968896e+03, 4.856442e+00
    8,     4,     2,  OMP+MPI4p, 1.000000e+02,      259, 4.967381e+03, 4.145044e+00
